{
  "vehicle": [
    {
      "id": 0,
      "manufacturer": "Hyundai",
      "colour": "lime"
    },
    {
      "id": 1,
      "manufacturer": "Aston Martin",
      "colour": "silver"
    },
    {
      "id": 2,
      "manufacturer": "Hyundai",
      "colour": "pink"
    },
    {
      "id": 3,
      "manufacturer": "Porsche",
      "colour": "turquoise"
    },
    {
      "id": 4,
      "manufacturer": "Dodge",
      "colour": "red"
    },
    {
      "id": 5,
      "manufacturer": "BMW",
      "colour": "lime"
    },
    {
      "id": 6,
      "manufacturer": "Maserati",
      "colour": "silver"
    },
    {
      "id": 7,
      "manufacturer": "Honda",
      "colour": "mint green"
    },
    {
      "id": 8,
      "manufacturer": "Fiat",
      "colour": "sky blue"
    },
    {
      "id": 9,
      "manufacturer": "Mini",
      "colour": "ivory"
    },
    {
      "id": 10,
      "manufacturer": "Honda",
      "colour": "ivory"
    },
    {
      "id": 11,
      "manufacturer": "Rolls Royce",
      "colour": "gold"
    },
    {
      "id": 12,
      "manufacturer": "Porsche",
      "colour": "magenta"
    },
    {
      "id": 13,
      "manufacturer": "Dodge",
      "colour": "green"
    },
    {
      "id": 14,
      "manufacturer": "Cadillac",
      "colour": "green"
    },
    {
      "id": 15,
      "manufacturer": "Fiat",
      "colour": "plum"
    },
    {
      "id": 16,
      "manufacturer": "Bentley",
      "colour": "pink"
    },
    {
      "id": 17,
      "manufacturer": "Ferrari",
      "colour": "orange"
    },
    {
      "id": 18,
      "manufacturer": "Honda",
      "colour": "grey"
    },
    {
      "id": 19,
      "manufacturer": "Dodge",
      "colour": "violet"
    },
    {
      "id": 20,
      "manufacturer": "Mazda",
      "colour": "white"
    },
    {
      "id": 21,
      "manufacturer": "Jeep",
      "colour": "cyan"
    },
    {
      "id": 22,
      "manufacturer": "Honda",
      "colour": "tan"
    },
    {
      "id": 23,
      "manufacturer": "BMW",
      "colour": "azure"
    },
    {
      "id": 24,
      "manufacturer": "Chevrolet",
      "colour": "plum"
    },
    {
      "id": 25,
      "manufacturer": "Bugatti",
      "colour": "black"
    },
    {
      "id": 26,
      "manufacturer": "Lamborghini",
      "colour": "black"
    },
    {
      "id": 27,
      "manufacturer": "Audi",
      "colour": "black"
    },
    {
      "id": 28,
      "manufacturer": "Smart",
      "colour": "pink"
    },
    {
      "id": 29,
      "manufacturer": "Ferrari",
      "colour": "violet"
    },
    {
      "id": 30,
      "manufacturer": "Jaguar",
      "colour": "indigo"
    },
    {
      "id": 31,
      "manufacturer": "BMW",
      "colour": "yellow"
    },
    {
      "id": 32,
      "manufacturer": "Porsche",
      "colour": "ivory"
    },
    {
      "id": 33,
      "manufacturer": "Toyota",
      "colour": "lime"
    },
    {
      "id": 34,
      "manufacturer": "Fiat",
      "colour": "salmon"
    },
    {
      "id": 35,
      "manufacturer": "Dodge",
      "colour": "blue"
    },
    {
      "id": 36,
      "manufacturer": "Volkswagen",
      "colour": "violet"
    },
    {
      "id": 37,
      "manufacturer": "Ferrari",
      "colour": "lime"
    },
    {
      "id": 38,
      "manufacturer": "Volkswagen",
      "colour": "orchid"
    },
    {
      "id": 39,
      "manufacturer": "Porsche",
      "colour": "tan"
    },
    {
      "id": 40,
      "manufacturer": "Audi",
      "colour": "green"
    },
    {
      "id": 41,
      "manufacturer": "Bugatti",
      "colour": "plum"
    },
    {
      "id": 42,
      "manufacturer": "Rolls Royce",
      "colour": "silver"
    },
    {
      "id": 43,
      "manufacturer": "Jeep",
      "colour": "orange"
    },
    {
      "id": 44,
      "manufacturer": "Maserati",
      "colour": "gold"
    },
    {
      "id": 45,
      "manufacturer": "Rolls Royce",
      "colour": "ivory"
    },
    {
      "id": 46,
      "manufacturer": "Lamborghini",
      "colour": "lavender"
    },
    {
      "id": 47,
      "manufacturer": "BMW",
      "colour": "white"
    },
    {
      "id": 48,
      "manufacturer": "Maserati",
      "colour": "gold"
    },
    {
      "id": 49,
      "manufacturer": "Mini",
      "colour": "ivory"
    },
    {
      "id": 50,
      "manufacturer": "Polestar",
      "colour": "red"
    },
    {
      "id": 51,
      "manufacturer": "Aston Martin",
      "colour": "mint green"
    },
    {
      "id": 52,
      "manufacturer": "BMW",
      "colour": "olive"
    },
    {
      "id": 53,
      "manufacturer": "Chevrolet",
      "colour": "salmon"
    },
    {
      "id": 54,
      "manufacturer": "Mercedes Benz",
      "colour": "orchid"
    },
    {
      "id": 55,
      "manufacturer": "Chrysler",
      "colour": "fuchsia"
    },
    {
      "id": 56,
      "manufacturer": "Polestar",
      "colour": "fuchsia"
    },
    {
      "id": 57,
      "manufacturer": "Mini",
      "colour": "olive"
    },
    {
      "id": 58,
      "manufacturer": "Mercedes Benz",
      "colour": "blue"
    },
    {
      "id": 59,
      "manufacturer": "Nissan",
      "colour": "turquoise"
    },
    {
      "id": 60,
      "manufacturer": "Mini",
      "colour": "indigo"
    },
    {
      "id": 61,
      "manufacturer": "Kia",
      "colour": "green"
    },
    {
      "id": 62,
      "manufacturer": "Toyota",
      "colour": "sky blue"
    },
    {
      "id": 63,
      "manufacturer": "Tesla",
      "colour": "turquoise"
    },
    {
      "id": 64,
      "manufacturer": "Cadillac",
      "colour": "gold"
    },
    {
      "id": 65,
      "manufacturer": "Toyota",
      "colour": "azure"
    },
    {
      "id": 66,
      "manufacturer": "Volvo",
      "colour": "green"
    },
    {
      "id": 67,
      "manufacturer": "Maserati",
      "colour": "violet"
    },
    {
      "id": 68,
      "manufacturer": "Honda",
      "colour": "red"
    },
    {
      "id": 69,
      "manufacturer": "Toyota",
      "colour": "teal"
    },
    {
      "id": 70,
      "manufacturer": "Bugatti",
      "colour": "olive"
    },
    {
      "id": 71,
      "manufacturer": "Maserati",
      "colour": "mint green"
    },
    {
      "id": 72,
      "manufacturer": "Hyundai",
      "colour": "teal"
    },
    {
      "id": 73,
      "manufacturer": "Bugatti",
      "colour": "fuchsia"
    },
    {
      "id": 74,
      "manufacturer": "Aston Martin",
      "colour": "turquoise"
    },
    {
      "id": 75,
      "manufacturer": "Aston Martin",
      "colour": "teal"
    },
    {
      "id": 76,
      "manufacturer": "Tesla",
      "colour": "purple"
    },
    {
      "id": 77,
      "manufacturer": "Jaguar",
      "colour": "green"
    },
    {
      "id": 78,
      "manufacturer": "Volvo",
      "colour": "salmon"
    },
    {
      "id": 79,
      "manufacturer": "Bugatti",
      "colour": "yellow"
    },
    {
      "id": 80,
      "manufacturer": "Cadillac",
      "colour": "lime"
    },
    {
      "id": 81,
      "manufacturer": "Ferrari",
      "colour": "blue"
    },
    {
      "id": 82,
      "manufacturer": "Mercedes Benz",
      "colour": "sky blue"
    },
    {
      "id": 83,
      "manufacturer": "Fiat",
      "colour": "azure"
    },
    {
      "id": 84,
      "manufacturer": "Chrysler",
      "colour": "yellow"
    },
    {
      "id": 85,
      "manufacturer": "Jeep",
      "colour": "lavender"
    },
    {
      "id": 86,
      "manufacturer": "Fiat",
      "colour": "violet"
    },
    {
      "id": 87,
      "manufacturer": "Maserati",
      "colour": "mint green"
    },
    {
      "id": 88,
      "manufacturer": "Maserati",
      "colour": "green"
    },
    {
      "id": 89,
      "manufacturer": "Lamborghini",
      "colour": "white"
    },
    {
      "id": 90,
      "manufacturer": "Polestar",
      "colour": "black"
    },
    {
      "id": 91,
      "manufacturer": "Nissan",
      "colour": "lavender"
    },
    {
      "id": 92,
      "manufacturer": "Nissan",
      "colour": "yellow"
    },
    {
      "id": 93,
      "manufacturer": "Land Rover",
      "colour": "cyan"
    },
    {
      "id": 94,
      "manufacturer": "Honda",
      "colour": "orange"
    },
    {
      "id": 95,
      "manufacturer": "Porsche",
      "colour": "tan"
    },
    {
      "id": 96,
      "manufacturer": "Dodge",
      "colour": "azure"
    },
    {
      "id": 97,
      "manufacturer": "Kia",
      "colour": "tan"
    },
    {
      "id": 98,
      "manufacturer": "Mazda",
      "colour": "gold"
    },
    {
      "id": 99,
      "manufacturer": "Porsche",
      "colour": "orange"
    }
  ]
}